10 Transformation with dplyr | Web Scraping using R
…
To filter on the observations we need and drop the remainder, we can use the
function filter(). It takes the tibble or data frame to be filtered as it’s
first argument – which we don’t need to specify when using the pipe – and one
or multiple expressions that specify which observations are to be filtered.

To filter only those observations that have the value “Bund” for the column
“Land”, we can write:

eligible_tbl %>% 
filter(Land == "Bund")
## # A tibble: 33 x 10
##    Land  Geschlecht Geburtsjahresgr… Wahlberechtigte `Wahlberechtigt…
##    <chr> <chr>      <chr>                      <dbl>            <dbl>
##  1 Bund  Summe      Summe                   61688485         47595800
##  2 Bund  Summe      1997 - 1999              2045501          1709333
##  3 Bund  Summe      1993 - 1996              2902998          2295723
##  4 Bund  Summe      1988 - 1992              4206014          3311417
##  5 Bund  Summe      1983 - 1987              4302277          3455795
##  6 Bund  Summe      1978 - 1982              4264347          3490155
##  7 Bund  Summe      1973 - 1977              3953481          3273575
##  8 Bund  Summe      1968 - 1972              5230865          4232089
##  9 Bund  Summe      1958 - 1967             12396299          9581842
## 10 Bund  Summe      1948 - 1957              9487267          6950185
## # … with 23 more rows, and 5 more variables: `Wahlberechtigte mit
## #   Wahlscheinvermerk` <dbl>, `Wähler/-innen` <dbl>, `Wähler/-innen ohne
## #   Wahlschein` <dbl>, `Wähler/-innen mit Wahlschein` <dbl>,
## #   Wahlbeteiligung <dbl>
…
10.2 select()

We should also limit our tibbles to the set of columns we will actually use.

Looking at eligible_tbl, we will only need the first four columns. We can use
the function select() to “select” the columns we need by name.

eligible_tbl %>% 
  select(Land, Geschlecht, Geburtsjahresgruppe, Wahlberechtigte)
## # A tibble: 627 x 4
##    Land  Geschlecht Geburtsjahresgruppe Wahlberechtigte
##    <chr> <chr>      <chr>                         <dbl>
##  1 Bund  Summe      Summe                      61688485
##  2 Bund  Summe      1997 - 1999                 2045501
##  3 Bund  Summe      1993 - 1996                 2902998
##  4 Bund  Summe      1988 - 1992                 4206014
##  5 Bund  Summe      1983 - 1987                 4302277
##  6 Bund  Summe      1978 - 1982                 4264347
##  7 Bund  Summe      1973 - 1977                 3953481
##  8 Bund  Summe      1968 - 1972                 5230865
##  9 Bund  Summe      1958 - 1967                12396299
## 10 Bund  Summe      1948 - 1957                 9487267
## # … with 617 more rows

If, as in this case, the columns we want so select follow each other in their
positions in the tibble, we can also use a shorter “from:to” notation, that
saves us somy typing.

eligible_tbl %>% 
  select(Land:Wahlberechtigte)
## # A tibble: 627 x 4
##    Land  Geschlecht Geburtsjahresgruppe Wahlberechtigte
##    <chr> <chr>      <chr>                         <dbl>
##  1 Bund  Summe      Summe                      61688485
##  2 Bund  Summe      1997 - 1999                 2045501
##  3 Bund  Summe      1993 - 1996                 2902998
##  4 Bund  Summe      1988 - 1992                 4206014
##  5 Bund  Summe      1983 - 1987                 4302277
##  6 Bund  Summe      1978 - 1982                 4264347
##  7 Bund  Summe      1973 - 1977                 3953481
##  8 Bund  Summe      1968 - 1972                 5230865
##  9 Bund  Summe      1958 - 1967                12396299
## 10 Bund  Summe      1948 - 1957                 9487267
## # … with 617 more rows
…
