8 Downloading and saving files | Web Scraping using R
…
eligible_tbl <- read_csv2("eligible.csv", comment = "#")
## ℹ Using "','" as decimal and "'.'" as grouping mark. Use `read_delim()` for more control.
## Rows: 627 Columns: 10
## ── Column specification ────────────────────────────────────────────────────────
## Delimiter: ";"
## chr (3): Land, Geschlecht, Geburtsjahresgruppe
## dbl (7): Wahlberechtigte, Wahlberechtigte ohne Wahlscheinvermerk, Wahlberech...
## 
## ℹ Use `spec()` to retrieve the full column specification for this data.
## ℹ Specify the column types or set `show_col_types = FALSE` to quiet this message.

eligible_tbl
## # A tibble: 627 × 10
##    Land  Geschlecht Geburtsjahresgrup… Wahlberechtigte `Wahlberechtigte ohne Wa…
##    <chr> <chr>      <chr>                        <dbl>                     <dbl>
##  1 Bund  Summe      Summe                     61688485                  47595800
##  2 Bund  Summe      1997 - 1999                2045501                   1709333
##  3 Bund  Summe      1993 - 1996                2902998                   2295723
##  4 Bund  Summe      1988 - 1992                4206014                   3311417
##  5 Bund  Summe      1983 - 1987                4302277                   3455795
##  6 Bund  Summe      1978 - 1982                4264347                   3490155
##  7 Bund  Summe      1973 - 1977                3953481                   3273575
##  8 Bund  Summe      1968 - 1972                5230865                   4232089
##  9 Bund  Summe      1958 - 1967               12396299                   9581842
## 10 Bund  Summe      1948 - 1957                9487267                   6950185
## # … with 617 more rows, and 5 more variables:
## #   Wahlberechtigte mit Wahlscheinvermerk <dbl>, Wähler/-innen <dbl>,
## #   Wähler/-innen ohne Wahlschein <dbl>, Wähler/-innen mit Wahlschein <dbl>,
## #   Wahlbeteiligung <dbl>

turnout_tbl <- read_csv2("turnout.csv", comment = "#")
## ℹ Using "','" as decimal and "'.'" as grouping mark. Use `read_delim()` for more control.
## Rows: 798 Columns: 16
## ── Column specification ────────────────────────────────────────────────────────
## Delimiter: ";"
## chr  (3): Land, Geschlecht, Geburtsjahresgruppe
## dbl (13): Erst-/Zweitstimme, Summe, Ungültig, CDU, SPD, DIE LINKE, GRÜNE, CS...
## 
## ℹ Use `spec()` to retrieve the full column specification for this data.
## ℹ Specify the column types or set `show_col_types = FALSE` to quiet this message.

turnout_tbl
## # A tibble: 798 × 16
##    Land  `Erst-/Zweitstimm… Geschlecht Geburtsjahresgrup…  Summe Ungültig    CDU
##    <chr>              <dbl> <chr>      <chr>               <dbl>    <dbl>  <dbl>
##  1 Bund                   1 Summe      Summe              4.70e7   586726 1.40e7
##  2 Bund                   1 Summe      1993 - 1999        3.37e6    37704 8.19e5
##  3 Bund                   1 Summe      1983 - 1992        6.04e6    58687 1.51e6
##  4 Bund                   1 Summe      1973 - 1982        6.23e6    62068 1.74e6
##  5 Bund                   1 Summe      1958 - 1972        1.39e7   146749 3.81e6
##  6 Bund                   1 Summe      1948 - 1957        7.69e6   103820 2.31e6
##  7 Bund                   1 Summe      1947 und früher    9.73e6   177697 3.84e6
##  8 Bund                   1 m          Summe              2.28e7   274037 6.30e6
##  9 Bund                   1 m          1993 - 1999        1.69e6    20330 4.02e5
## 10 Bund                   1 m          1983 - 1992        3.00e6    29800 7.07e5
## # … with 788 more rows, and 9 more variables: SPD <dbl>, DIE LINKE <dbl>,
## #   GRÜNE <dbl>, CSU <dbl>, FDP <dbl>, AfD <dbl>, Sonstige <dbl>,
## #   dar. NPD <dbl>, dar. FREIE WÄHLER <dbl>
…
