10 Parsing csv files with readr | Web Scraping using R
…
eligible_tbl
## # A tibble: 627 x 10
##    Land  Geschlecht Geburtsjahresgr… Wahlberechtigte `Wahlberechtigt…
##    <chr> <chr>      <chr>                      <dbl>            <dbl>
##  1 Bund  Summe      Summe                   61688485         47595800
##  2 Bund  Summe      1997 - 1999              2045501          1709333
##  3 Bund  Summe      1993 - 1996              2902998          2295723
##  4 Bund  Summe      1988 - 1992              4206014          3311417
##  5 Bund  Summe      1983 - 1987              4302277          3455795
##  6 Bund  Summe      1978 - 1982              4264347          3490155
##  7 Bund  Summe      1973 - 1977              3953481          3273575
##  8 Bund  Summe      1968 - 1972              5230865          4232089
##  9 Bund  Summe      1958 - 1967             12396299          9581842
## 10 Bund  Summe      1948 - 1957              9487267          6950185
## # … with 617 more rows, and 5 more variables: `Wahlberechtigte mit
## #   Wahlscheinvermerk` <dbl>, `Wähler/-innen` <dbl>, `Wähler/-innen ohne
## #   Wahlschein` <dbl>, `Wähler/-innen mit Wahlschein` <dbl>,
## #   Wahlbeteiligung <dbl>
…
turnout_tbl
## # A tibble: 798 x 16
##    Land  `Erst-/Zweitsti… Geschlecht Geburtsjahresgr…  Summe Ungültig    CDU
##    <chr>            <dbl> <chr>      <chr>             <dbl>    <dbl>  <dbl>
##  1 Bund                 1 Summe      Summe            4.70e7   586726 1.40e7
##  2 Bund                 1 Summe      1993 - 1999      3.37e6    37704 8.19e5
##  3 Bund                 1 Summe      1983 - 1992      6.04e6    58687 1.51e6
##  4 Bund                 1 Summe      1973 - 1982      6.23e6    62068 1.74e6
##  5 Bund                 1 Summe      1958 - 1972      1.39e7   146749 3.81e6
##  6 Bund                 1 Summe      1948 - 1957      7.69e6   103820 2.31e6
##  7 Bund                 1 Summe      1947 und früher  9.73e6   177697 3.84e6
##  8 Bund                 1 m          Summe            2.28e7   274037 6.30e6
##  9 Bund                 1 m          1993 - 1999      1.69e6    20330 4.02e5
## 10 Bund                 1 m          1983 - 1992      3.00e6    29800 7.07e5
## # … with 788 more rows, and 9 more variables: SPD <dbl>, `DIE LINKE` <dbl>,
## #   GRÜNE <dbl>, CSU <dbl>, FDP <dbl>, AfD <dbl>, Sonstige <dbl>, `dar.
## #   NPD` <dbl>, `dar. FREIE WÄHLER` <dbl>
…
To filter on the observations we need and drop the remainder, we can use the
function filter(). It takes the tibble or data frame to be filtered as it’s
first argument – which we don’t need to specify when using the pipe – and one
or multiple expressions that specify which observations are to be filtered.

To filter only those observations that have the value “Bund” for the column
“Land”, we can write:

eligible_tbl %>% 
  filter(Land == "Bund")
## # A tibble: 33 x 10
##    Land  Geschlecht Geburtsjahresgr… Wahlberechtigte `Wahlberechtigt…
##    <chr> <chr>      <chr>                      <dbl>            <dbl>
##  1 Bund  Summe      Summe                   61688485         47595800
##  2 Bund  Summe      1997 - 1999              2045501          1709333
##  3 Bund  Summe      1993 - 1996              2902998          2295723
##  4 Bund  Summe      1988 - 1992              4206014          3311417
##  5 Bund  Summe      1983 - 1987              4302277          3455795
##  6 Bund  Summe      1978 - 1982              4264347          3490155
##  7 Bund  Summe      1973 - 1977              3953481          3273575
##  8 Bund  Summe      1968 - 1972              5230865          4232089
##  9 Bund  Summe      1958 - 1967             12396299          9581842
## 10 Bund  Summe      1948 - 1957              9487267          6950185
## # … with 23 more rows, and 5 more variables: `Wahlberechtigte mit
## #   Wahlscheinvermerk` <dbl>, `Wähler/-innen` <dbl>, `Wähler/-innen ohne
## #   Wahlschein` <dbl>, `Wähler/-innen mit Wahlschein` <dbl>,
## #   Wahlbeteiligung <dbl>
…
10.3.2 select()

We should also limit our tibbles to the set of columns we will actually use.

Looking at eligible_tbl, we will only need the first four columns. We can use
the function select() to “select” the columns we need by name.

eligible_tbl %>% 
  select(Land, Geschlecht, Geburtsjahresgruppe, Wahlberechtigte)
## # A tibble: 627 x 4
##    Land  Geschlecht Geburtsjahresgruppe Wahlberechtigte
##    <chr> <chr>      <chr>                         <dbl>
##  1 Bund  Summe      Summe                      61688485
##  2 Bund  Summe      1997 - 1999                 2045501
##  3 Bund  Summe      1993 - 1996                 2902998
##  4 Bund  Summe      1988 - 1992                 4206014
##  5 Bund  Summe      1983 - 1987                 4302277
##  6 Bund  Summe      1978 - 1982                 4264347
##  7 Bund  Summe      1973 - 1977                 3953481
##  8 Bund  Summe      1968 - 1972                 5230865
##  9 Bund  Summe      1958 - 1967                12396299
## 10 Bund  Summe      1948 - 1957                 9487267
## # … with 617 more rows

If, as in this case, the columns we want so select follow each other in their
positions in the tibble, we can also use a shorter “from:to” notation, that
saves us somy typing.

eligible_tbl %>% 
  select(Land:Wahlberechtigte)
## # A tibble: 627 x 4
##    Land  Geschlecht Geburtsjahresgruppe Wahlberechtigte
##    <chr> <chr>      <chr>                         <dbl>
##  1 Bund  Summe      Summe                      61688485
##  2 Bund  Summe      1997 - 1999                 2045501
##  3 Bund  Summe      1993 - 1996                 2902998
##  4 Bund  Summe      1988 - 1992                 4206014
##  5 Bund  Summe      1983 - 1987                 4302277
##  6 Bund  Summe      1978 - 1982                 4264347
##  7 Bund  Summe      1973 - 1977                 3953481
##  8 Bund  Summe      1968 - 1972                 5230865
##  9 Bund  Summe      1958 - 1967                12396299
## 10 Bund  Summe      1948 - 1957                 9487267
## # … with 617 more rows
…
