13 Regular expressions | Web Scraping using R
…
As seen in chapter 11, district names with two parts, are sometimes written with and
sometimes without whitespace around the dash, as seen here:

reports %>% 
  group_by(District) %>% 
  summarize(reports = n())
## # A tibble: 22 x 2
##    District                                  reports
##  * <chr>                                       <int>
##  1 Ereignisort: berlinweit                       252
##  2 Ereignisort: bezirksübergreifend              775
##  3 Ereignisort: bundesweit                        39
##  4 Ereignisort: Charlottenburg - Wilmersdorf     580
##  5 Ereignisort: Charlottenburg-Wilmersdorf       980
##  6 Ereignisort: Friedrichshain - Kreuzberg       661
##  7 Ereignisort: Friedrichshain-Kreuzberg        1170
##  8 Ereignisort: Lichtenberg                      890
##  9 Ereignisort: Marzahn - Hellersdorf            253
## 10 Ereignisort: Marzahn-Hellersdorf              560
## # … with 12 more rows
…
"\s" begins with a backslash. In this case we have to tell R to take this
backslash literally by adding another backslash before it, escaping the second
backslash; "\\s" is understood as "\s". If this seems confusing and
needlessly complicated, save your rage for when you find out what you have to
write to match a literal backslash in a string. For a full list of characters
that have to be escaped and how to escapte them, see the cheat sheet linked
above.

reports %>%
  mutate(District = str_remove(District, pattern = "\\s")) %>% 
  group_by(District) %>% 
  summarize(reports = n())
## # A tibble: 22 x 2
##    District                                 reports
##  * <chr>                                      <int>
##  1 Ereignisort:berlinweit                       252
##  2 Ereignisort:bezirksübergreifend              775
##  3 Ereignisort:bundesweit                        39
##  4 Ereignisort:Charlottenburg - Wilmersdorf     580
##  5 Ereignisort:Charlottenburg-Wilmersdorf       980
##  6 Ereignisort:Friedrichshain - Kreuzberg       661
##  7 Ereignisort:Friedrichshain-Kreuzberg        1170
##  8 Ereignisort:Lichtenberg                      890
##  9 Ereignisort:Marzahn - Hellersdorf            253
## 10 Ereignisort:Marzahn-Hellersdorf              560
## # … with 12 more rows
…
