7 Scraping mehrseitiger Websites | Web Scraping mit R
…
    map(html_nodes, css = "p.date") %>% 
    map(html_text) %>% 
    unlist() %>% 
    dmy(),
  name = pages %>% 
    map(html_nodes, css = "p.result-name") %>% 
    map(html_text, trim = TRUE) %>% 
    unlist(),
  link = pages %>% 
    map(html_nodes, css = "li.ce.ce-teaser > a") %>% 
    map(html_attr, name = "href") %>% 
    unlist() %>% 
    str_c("https://www.landtag.brandenburg.de", .)
)
## # A tibble: 175 x 3
##    date       name                              link                            
##    <date>     <chr>                             <chr>                           
##  1 2020-12-30 Zum Tode von Paul-Heinz Dittrich  https://www.landtag.brandenburg…
##  2 2020-12-17 Symbol für Zusammenhalt auch in … https://www.landtag.brandenburg…
##  3 2020-12-11 Termine des Landtages Brandenbur… https://www.landtag.brandenburg…
##  4 2020-12-10 Hinweise für Medien zu den Plena… https://www.landtag.brandenburg…
##  5 2020-12-04 Termine des Landtages Brandenbur… https://www.landtag.brandenburg…
##  6 2020-11-27 Termine des Landtages Brandenbur… https://www.landtag.brandenburg…
##  7 2020-11-25 UN-Women-Flagge weht im Innenhof… https://www.landtag.brandenburg…
##  8 2020-11-23 Hinweise für Medien zur Sondersi… https://www.landtag.brandenburg…
##  9 2020-11-23 Attikafiguren von Perseus und An… https://www.landtag.brandenburg…
## 10 2020-11-20 Termine des Landtages Brandenbur… https://www.landtag.brandenburg…
## # … with 165 more rows
