4 Erstes Scraping mit rvest | Web Scraping mit R
…
Damit könnten wir bereits weiterarbeiten, für viele Anwendungen ist es aber
praktischer, wenn wir die Daten in Tabellenform zusammenstellen. Im tidyverse
bietet sich dazu die Form des Tibbles an.

countries <- tibble(
  Land = country,
  Hauptstadt = capital,
  Bevoelkerung = population,
  Flaeche = area
)

countries
## # A tibble: 250 x 4
##    Land                 Hauptstadt       Bevoelkerung  Flaeche
##    <chr>                <chr>                   <dbl>    <dbl>
##  1 Andorra              Andorra la Vella        84000      468
##  2 United Arab Emirates Abu Dhabi             4975593    82880
##  3 Afghanistan          Kabul                29121286   647500
##  4 Antigua and Barbuda  St. John's              86754      443
##  5 Anguilla             The Valley              13254      102
##  6 Albania              Tirana                2986952    28748
##  7 Armenia              Yerevan               2968000    29800
##  8 Angola               Luanda               13068161  1246700
##  9 Antarctica           None                        0 14000000
## 10 Argentina            Buenos Aires         41343201  2766890
## # … with 240 more rows
…
countries_2
## # A tibble: 250 x 4
##    Land                 Hauptstadt       Bevoelkerung  Flaeche
##    <chr>                <chr>                   <dbl>    <dbl>
##  1 Andorra              Andorra la Vella        84000      468
##  2 United Arab Emirates Abu Dhabi             4975593    82880
##  3 Afghanistan          Kabul                29121286   647500
##  4 Antigua and Barbuda  St. John's              86754      443
##  5 Anguilla             The Valley              13254      102
##  6 Albania              Tirana                2986952    28748
##  7 Armenia              Yerevan               2968000    29800
##  8 Angola               Luanda               13068161  1246700
##  9 Antarctica           None                        0 14000000
## 10 Argentina            Buenos Aires         41343201  2766890
## # … with 240 more rows
